Deep Learning for Cancer Immunotherapy
…
A sample across the entire dataset of size 10% was assigned as test data and the remainder as train data. It should be noted that since the data set originates from a model, the outcome of this use case will be a model of a model. However, netMHCpan is very accurate (96.5% of natural ligands are identified at a very high specificity 98.5%). The final input data is available here. In the following each peptide will be encoded using the BLOSUM62 matrix using the pep_encode() function from the PepTools package. This way each peptide is converted to an image matrix with 9 rows and 20 columns.

Reference: Inside Life Science, Genetics by the Numbers 

Lets load the data:

pep_file = get_file("ran_peps_netMHCpan40_predicted_A0201_reduced_cleaned_balanced.tsv", 
                    origin = "https://git.io/vb3Xa") 
pep_dat  = read_tsv(file = pep_file)

The example peptide data looks like this:

pep_dat

# A tibble: 23,760 x 4
     peptide label_chr label_num data_type
       <chr>     <chr>     <int>     <chr>
 1 LLTDAQRIV        WB         1     train
 2 LMAFYLYEV        SB         2     train
 3 VMSPITLPT        WB         1      test
 4 SLHLTNCFV        WB         1     train
 5 RQFTCMIAV        WB         1     train
 6 HQRLAPTMP        NB         0     train
 7 FMNGHTHIA        SB         2     train
 8 KINPYFSGA        WB         1     train
 9 WLLIFHHCP        NB         0     train
10 NIWLAIIEL        WB         1     train
# ... with 23,750 more rows
…
